ANOVA
…
Parte dos resultados de Confirmation and control of HPPD-inhibiting herbicideresistant waterhemp (Amaranthus tuberculatus) in Nebraska de Oliveira et al.(2017). Nove herbicidas pr-emergentes aplicados em milho. Os estudos foi conduzido em campo em 2013 e 2014.

Vamos usar o pacote RCurl para baixar o pacote via GitHub.

library(RCurl)

# Baixando via GitHub
df_path <- url("https://raw.githubusercontent.com/maxwelco/workshop-esalq/main/data/residual.csv")

# Lendo via read_csv
residual <- read_csv(df_path)

residual

## # A tibble: 54 x 7
##    weed       year herbicide            trt   rep   dat control
##    <chr>     <dbl> <chr>              <dbl> <dbl> <dbl>   <dbl>
##  1 waterhemp  2014 SureStart              1     1    34     100
##  2 waterhemp  2014 SureStart              1     2    34     100
##  3 waterhemp  2014 SureStart              1     3    34      95
##  4 waterhemp  2014 Lumaz EZ + Harness     2     1    34      50
##  5 waterhemp  2014 Lumaz EZ + Harness     2     2    34      30
##  6 waterhemp  2014 Lumaz EZ + Harness     2     3    34      70
##  7 waterhemp  2014 Zidua_1                3     1    34      70
##  8 waterhemp  2014 Zidua_1                3     2    34     100
##  9 waterhemp  2014 Zidua_1                3     3    34      80
## 10 waterhemp  2014 Zidua_2                4     1    34      85
## #  with 44 more rows

3 Manipulao dos dados

O resultado (control), % de controle de planta daninha (waterhemp) est em uma escala de 0 a 100, precisamos colocar em uma escala entre 0 e 1 (proporo)

residual1 <- residual %>% 
  mutate(control_prop = control / 100)

residual1

## # A tibble: 54 x 8
##    weed       year herbicide            trt   rep   dat control control_prop
##    <chr>     <dbl> <chr>              <dbl> <dbl> <dbl>   <dbl>        <dbl>
##  1 waterhemp  2014 SureStart              1     1    34     100         1   
##  2 waterhemp  2014 SureStart              1     2    34     100         1   
##  3 waterhemp  2014 SureStart              1     3    34      95         0.95
##  4 waterhemp  2014 Lumaz EZ + Harness     2     1    34      50         0.5 
##  5 waterhemp  2014 Lumaz EZ + Harness     2     2    34      30         0.3 
##  6 waterhemp  2014 Lumaz EZ + Harness     2     3    34      70         0.7 
##  7 waterhemp  2014 Zidua_1                3     1    34      70         0.7 
##  8 waterhemp  2014 Zidua_1                3     2    34     100         1   
##  9 waterhemp  2014 Zidua_1                3     3    34      80         0.8 
## 10 waterhemp  2014 Zidua_2                4     1    34      85         0.85
## #  with 44 more rows

Pronto! Os dados de controle esto na escala de proporo. Porm existem vrios 0 e 1. Devemos eliminar o 0 e 1 e mudar para 0.001 e 0.999, respectivamente.

residual2 <- residual1 %>% 
  mutate(control_prop = case_when(
    control_prop == 1.00 ~ 0.999,
    control_prop == 0.00 ~ 0.001,
    TRUE                 ~ control_prop
  ))

residual2

## # A tibble: 54 x 8
##    weed       year herbicide            trt   rep   dat control control_prop
##    <chr>     <dbl> <chr>              <dbl> <dbl> <dbl>   <dbl>        <dbl>
##  1 waterhemp  2014 SureStart              1     1    34     100        0.999
##  2 waterhemp  2014 SureStart              1     2    34     100        0.999
##  3 waterhemp  2014 SureStart              1     3    34      95        0.95 
##  4 waterhemp  2014 Lumaz EZ + Harness     2     1    34      50        0.5  
##  5 waterhemp  2014 Lumaz EZ + Harness     2     2    34      30        0.3  
##  6 waterhemp  2014 Lumaz EZ + Harness     2     3    34      70        0.7  
##  7 waterhemp  2014 Zidua_1                3     1    34      70        0.7  
##  8 waterhemp  2014 Zidua_1                3     2    34     100        0.999
##  9 waterhemp  2014 Zidua_1                3     3    34      80        0.8  
## 10 waterhemp  2014 Zidua_2                4     1    34      85        0.85 
## #  with 44 more rows

Agora sim, os dados esto prontos!

Mas antes um pequeno ajuste

residual3 <- residual2 %>%
  mutate_if(is_character, as_factor) %>% 
  mutate_at(c("year", "trt", "rep"), as_factor)

residual3

## # A tibble: 54 x 8
##    weed      year  herbicide          trt   rep     dat control control_prop
##    <fct>     <fct> <fct>              <fct> <fct> <dbl>   <dbl>        <dbl>
##  1 waterhemp 2014  SureStart          1     1        34     100        0.999
##  2 waterhemp 2014  SureStart          1     2        34     100        0.999
##  3 waterhemp 2014  SureStart          1     3        34      95        0.95 
##  4 waterhemp 2014  Lumaz EZ + Harness 2     1        34      50        0.5  
##  5 waterhemp 2014  Lumaz EZ + Harness 2     2        34      30        0.3  
##  6 waterhemp 2014  Lumaz EZ + Harness 2     3        34      70        0.7  
##  7 waterhemp 2014  Zidua_1            3     1        34      70        0.7  
##  8 waterhemp 2014  Zidua_1            3     2        34     100        0.999
##  9 waterhemp 2014  Zidua_1            3     3        34      80        0.8  
## 10 waterhemp 2014  Zidua_2            4     1        34      85        0.85 
## #  with 44 more rows
…
